
rubber:cron running ["/mnt/production-production/shared/bundle/ruby/1.8/bin/rubber", "util:rotate_logs", "--directory=/mnt/production-production/releases/20160304115227/log"] at Thu Aug 04 00:00:04 -0300 2016
Rotating logfiles located at: /mnt/production-production/releases/20160304115227/log/*.log
Cleaning rotated log files older than 7 days

rubber:cron running ["/mnt/production-production/shared/bundle/ruby/1.8/bin/rubber", "util:rotate_logs", "--directory=/mnt/nginx/logs"] at Thu Aug 04 00:00:05 -0300 2016
Rotating logfiles located at: /mnt/nginx/logs/*.log
Cleaning rotated log files older than 7 days

rubber:cron running ["/mnt/production-production/shared/bundle/ruby/1.8/bin/rubber", "util:rotate_logs", "--directory=/mnt/nginx/logs"] at Fri Aug 05 00:00:05 -0300 2016
Rotating logfiles located at: /mnt/nginx/logs/*.log
Cleaning rotated log files older than 7 days
