[08/02/16 07:13:12 -0300 web04.gustavobrigido.com.br (28144)] INFO : Reporting to: https://rpm.newrelic.com/accounts/348639/applications/2221667
[08/02/16 10:00:46 -0300 web04.gustavobrigido.com.br (28241)] INFO : Reporting to: https://rpm.newrelic.com/accounts/348639/applications/2221667
[08/02/16 13:15:09 -0300 web04.gustavobrigido.com.br (28335)] INFO : Reporting to: https://rpm.newrelic.com/accounts/348639/applications/2221667
[08/02/16 15:09:29 -0300 web04.gustavobrigido.com.br (28410)] INFO : Reporting to: https://rpm.newrelic.com/accounts/348639/applications/2221667
[08/02/16 17:12:53 -0300 web04.gustavobrigido.com.br (28464)] INFO : Reporting to: https://rpm.newrelic.com/accounts/348639/applications/2221667
[08/02/16 20:12:49 -0300 web04.gustavobrigido.com.br (28520)] INFO : Reporting to: https://rpm.newrelic.com/accounts/348639/applications/2221667
[08/02/16 22:40:19 -0300 web04.gustavobrigido.com.br (28563)] INFO : Reporting to: https://rpm.newrelic.com/accounts/348639/applications/2221667
